[
    {
        "name": "magnolia-cloud-bootstrapper-1.0.2.jar",
        "destDir": "/app/magnolia/WEB-INF/lib"
    },
    {
        "name": "jjwt-impl-0.11.2.jar",
        "destDir": "/app/magnolia/WEB-INF/lib"
    },
    {
        "name": "jjwt-impl-0.11.2.jar",
        "destDir": "/extraLibs/"
    }
]